[gd_scene load_steps=3 format=2]

[ext_resource path="res://game/deployable/BRIDGE02.png" type="Texture" id=2]

[sub_resource type="RectangleShape2D" id=1]

[node name="Bridge02" type="StaticBody2D"]
modulate = Color( 0.329412, 0.329412, 0.329412, 1 )

[node name="Sprite" type="Sprite" parent="."]
light_mask = 524288
position = Vector2( 0, 32 )
texture = ExtResource( 2 )

[node name="CollisionShape2D" type="CollisionShape2D" parent="."]
position = Vector2( 0, 32 )
scale = Vector2( 1.5, 1.5 )
shape = SubResource( 1 )
one_way_collision = true
