[gd_scene load_steps=4 format=2]

[ext_resource path="res://game/Climbable.gd" type="Script" id=1]
[ext_resource path="res://game/deployable/LADDER03.png" type="Texture" id=2]

[sub_resource type="RectangleShape2D" id=1]

[node name="Ladder03" type="Area2D"]
modulate = Color( 0.329412, 0.329412, 0.329412, 1 )
script = ExtResource( 1 )

[node name="Sprite" type="Sprite" parent="."]
light_mask = 524288
position = Vector2( 0, -16 )
texture = ExtResource( 2 )

[node name="CollisionShape2D" type="CollisionShape2D" parent="."]
position = Vector2( 0, -16 )
scale = Vector2( 1.5, 1.5 )
shape = SubResource( 1 )
