[gd_scene load_steps=4 format=2]

[ext_resource path="res://game/DialogBox.gd" type="Script" id=1]
[ext_resource path="res://interface/dialog_box.png" type="Texture" id=2]
[ext_resource path="res://interface/fonts/Patrick_Hand.tres" type="DynamicFont" id=3]

[node name="DialogBox" type="Node2D"]
z_index = 300
script = ExtResource( 1 )

[node name="NinePatchRect" type="NinePatchRect" parent="."]
margin_right = 214.0
margin_bottom = 50.0
texture = ExtResource( 2 )
region_rect = Rect2( -0.197784, 0, 81.4417, 40.6936 )
patch_margin_left = 50
patch_margin_top = 8
patch_margin_right = 6
patch_margin_bottom = 11
__meta__ = {
"_edit_use_anchors_": false
}

[node name="Label" type="Label" parent="NinePatchRect"]
anchor_right = 1.0
anchor_bottom = 1.0
margin_top = -0.943848
custom_fonts/font = ExtResource( 3 )
custom_colors/font_color = Color( 0, 0, 0, 1 )
text = "I should come back to this later..."
align = 1
valign = 1
