[gd_resource type="SpriteFrames" load_steps=53 format=2]

[ext_resource path="res://player/PlayerWalk.png" type="Texture" id=1]
[ext_resource path="res://player/PlayerIdle.png" type="Texture" id=2]
[ext_resource path="res://player/PlayerJump.png" type="Texture" id=3]
[ext_resource path="res://player/PlayerFall.png" type="Texture" id=4]
[ext_resource path="res://player/PlayerBuild.png" type="Texture" id=5]
[ext_resource path="res://player/PlayerClimb.png" type="Texture" id=6]
[ext_resource path="res://player/Dark.png" type="Texture" id=7]

[sub_resource type="AtlasTexture" id=1]
atlas = ExtResource( 1 )
region = Rect2( 0, 0, 64, 64 )

[sub_resource type="AtlasTexture" id=2]
atlas = ExtResource( 1 )
region = Rect2( 64, 0, 64, 64 )

[sub_resource type="AtlasTexture" id=3]
atlas = ExtResource( 1 )
region = Rect2( 128, 0, 64, 64 )

[sub_resource type="AtlasTexture" id=4]
atlas = ExtResource( 1 )
region = Rect2( 192, 0, 64, 64 )

[sub_resource type="AtlasTexture" id=5]
atlas = ExtResource( 1 )
region = Rect2( 256, 0, 64, 64 )

[sub_resource type="AtlasTexture" id=6]
atlas = ExtResource( 1 )
region = Rect2( 320, 0, 64, 64 )

[sub_resource type="AtlasTexture" id=7]
atlas = ExtResource( 1 )
region = Rect2( 384, 0, 64, 64 )

[sub_resource type="AtlasTexture" id=8]
atlas = ExtResource( 1 )
region = Rect2( 448, 0, 64, 64 )

[sub_resource type="AtlasTexture" id=9]
atlas = ExtResource( 5 )
region = Rect2( 0, 0, 64, 64 )

[sub_resource type="AtlasTexture" id=10]
atlas = ExtResource( 5 )
region = Rect2( 64, 0, 64, 64 )

[sub_resource type="AtlasTexture" id=11]
atlas = ExtResource( 5 )
region = Rect2( 128, 0, 64, 64 )

[sub_resource type="AtlasTexture" id=12]
atlas = ExtResource( 6 )
region = Rect2( 0, 0, 64, 64 )

[sub_resource type="AtlasTexture" id=13]
atlas = ExtResource( 6 )
region = Rect2( 64, 0, 64, 64 )

[sub_resource type="AtlasTexture" id=14]
atlas = ExtResource( 6 )
region = Rect2( 128, 0, 64, 64 )

[sub_resource type="AtlasTexture" id=15]
atlas = ExtResource( 6 )
region = Rect2( 192, 0, 64, 64 )

[sub_resource type="AtlasTexture" id=16]
atlas = ExtResource( 2 )
region = Rect2( 0, 0, 64, 64 )

[sub_resource type="AtlasTexture" id=17]
atlas = ExtResource( 2 )
region = Rect2( 64, 0, 64, 64 )

[sub_resource type="AtlasTexture" id=18]
atlas = ExtResource( 2 )
region = Rect2( 128, 0, 64, 64 )

[sub_resource type="AtlasTexture" id=19]
atlas = ExtResource( 2 )
region = Rect2( 192, 0, 64, 64 )

[sub_resource type="AtlasTexture" id=20]
atlas = ExtResource( 2 )
region = Rect2( 256, 0, 64, 64 )

[sub_resource type="AtlasTexture" id=21]
atlas = ExtResource( 2 )
region = Rect2( 320, 0, 64, 64 )

[sub_resource type="AtlasTexture" id=22]
atlas = ExtResource( 2 )
region = Rect2( 384, 0, 64, 64 )

[sub_resource type="AtlasTexture" id=23]
atlas = ExtResource( 2 )
region = Rect2( 448, 0, 64, 64 )

[sub_resource type="AtlasTexture" id=24]
atlas = ExtResource( 2 )
region = Rect2( 512, 0, 64, 64 )

[sub_resource type="AtlasTexture" id=25]
atlas = ExtResource( 2 )
region = Rect2( 576, 0, 64, 64 )

[sub_resource type="AtlasTexture" id=26]
atlas = ExtResource( 2 )
region = Rect2( 640, 0, 64, 64 )

[sub_resource type="AtlasTexture" id=27]
atlas = ExtResource( 2 )
region = Rect2( 704, 0, 64, 64 )

[sub_resource type="AtlasTexture" id=28]
atlas = ExtResource( 3 )
region = Rect2( 0, 0, 64, 64 )

[sub_resource type="AtlasTexture" id=29]
atlas = ExtResource( 3 )
region = Rect2( 64, 0, 64, 64 )

[sub_resource type="AtlasTexture" id=30]
atlas = ExtResource( 3 )
region = Rect2( 128, 0, 64, 64 )

[sub_resource type="AtlasTexture" id=31]
atlas = ExtResource( 3 )
region = Rect2( 192, 0, 64, 64 )

[sub_resource type="AtlasTexture" id=32]
atlas = ExtResource( 2 )
region = Rect2( 0, 0, 64, 64 )

[sub_resource type="AtlasTexture" id=33]
atlas = ExtResource( 2 )
region = Rect2( 64, 0, 64, 64 )

[sub_resource type="AtlasTexture" id=34]
atlas = ExtResource( 2 )
region = Rect2( 128, 0, 64, 64 )

[sub_resource type="AtlasTexture" id=35]
atlas = ExtResource( 2 )
region = Rect2( 192, 0, 64, 64 )

[sub_resource type="AtlasTexture" id=36]
atlas = ExtResource( 2 )
region = Rect2( 256, 0, 64, 64 )

[sub_resource type="AtlasTexture" id=37]
atlas = ExtResource( 2 )
region = Rect2( 320, 0, 64, 64 )

[sub_resource type="AtlasTexture" id=38]
atlas = ExtResource( 2 )
region = Rect2( 384, 0, 64, 64 )

[sub_resource type="AtlasTexture" id=39]
atlas = ExtResource( 2 )
region = Rect2( 448, 0, 64, 64 )

[sub_resource type="AtlasTexture" id=40]
atlas = ExtResource( 2 )
region = Rect2( 512, 0, 64, 64 )

[sub_resource type="AtlasTexture" id=41]
atlas = ExtResource( 2 )
region = Rect2( 576, 0, 64, 64 )

[sub_resource type="AtlasTexture" id=42]
atlas = ExtResource( 2 )
region = Rect2( 640, 0, 64, 64 )

[sub_resource type="AtlasTexture" id=43]
atlas = ExtResource( 2 )
region = Rect2( 704, 0, 64, 64 )

[sub_resource type="AtlasTexture" id=44]
atlas = ExtResource( 4 )
region = Rect2( 0, 0, 64, 64 )

[sub_resource type="AtlasTexture" id=45]
atlas = ExtResource( 4 )
region = Rect2( 64, 0, 64, 64 )

[resource]
animations = [ {
"frames": [ SubResource( 1 ), SubResource( 2 ), SubResource( 3 ), SubResource( 4 ), SubResource( 5 ), SubResource( 6 ), SubResource( 7 ), SubResource( 8 ) ],
"loop": true,
"name": "Walk",
"speed": 10.0
}, {
"frames": [ SubResource( 9 ), SubResource( 10 ), SubResource( 11 ) ],
"loop": true,
"name": "Build",
"speed": 10.0
}, {
"frames": [ SubResource( 12 ), SubResource( 13 ), SubResource( 14 ), SubResource( 15 ) ],
"loop": true,
"name": "Climb",
"speed": 10.0
}, {
"frames": [ SubResource( 16 ), SubResource( 17 ), SubResource( 18 ), SubResource( 19 ), SubResource( 20 ), SubResource( 21 ), SubResource( 22 ), SubResource( 23 ), SubResource( 24 ), SubResource( 25 ), SubResource( 26 ), SubResource( 27 ) ],
"loop": true,
"name": "Idle",
"speed": 10.0
}, {
"frames": [ SubResource( 28 ), SubResource( 29 ), SubResource( 30 ), SubResource( 31 ) ],
"loop": true,
"name": "Jump",
"speed": 10.0
}, {
"frames": [ SubResource( 32 ), SubResource( 33 ), SubResource( 34 ), SubResource( 35 ), SubResource( 36 ), SubResource( 37 ), SubResource( 38 ), SubResource( 39 ), SubResource( 40 ), SubResource( 41 ), SubResource( 42 ), SubResource( 43 ) ],
"loop": true,
"name": "Dead",
"speed": 10.0
}, {
"frames": [ SubResource( 44 ), SubResource( 45 ) ],
"loop": true,
"name": "Fall",
"speed": 10.0
}, {
"frames": [ ExtResource( 7 ) ],
"loop": true,
"name": "Dark",
"speed": 5.0
} ]
